alu_test.vcd
$date
	Mon May 11 11:12:20 2026
$end
$version
	QuestaSim Version 10.6c
$end
$timescale
	1ps
$end

$scope module alu_testbench $end
$var parameter 32 ! N $end
$var parameter 32 " M $end
$var reg 8 # OPA [7:0] $end
$var reg 8 $ OPB [7:0] $end
$var reg 1 % CLK $end
$var reg 1 & RST $end
$var reg 1 ' CE $end
$var reg 1 ( MODE $end
$var reg 1 ) CIN $end
$var reg 2 * IN_VAL [1:0] $end
$var reg 4 + CMD [3:0] $end
$var wire 1 , RES_dut [15] $end
$var wire 1 - RES_dut [14] $end
$var wire 1 . RES_dut [13] $end
$var wire 1 / RES_dut [12] $end
$var wire 1 0 RES_dut [11] $end
$var wire 1 1 RES_dut [10] $end
$var wire 1 2 RES_dut [9] $end
$var wire 1 3 RES_dut [8] $end
$var wire 1 4 RES_dut [7] $end
$var wire 1 5 RES_dut [6] $end
$var wire 1 6 RES_dut [5] $end
$var wire 1 7 RES_dut [4] $end
$var wire 1 8 RES_dut [3] $end
$var wire 1 9 RES_dut [2] $end
$var wire 1 : RES_dut [1] $end
$var wire 1 ; RES_dut [0] $end
$var wire 1 < COUT_dut $end
$var wire 1 = OFLOW_dut $end
$var wire 1 > G_dut $end
$var wire 1 ? E_dut $end
$var wire 1 @ L_dut $end
$var wire 1 A ERR_dut $end
$var wire 1 B RES_ref [15] $end
$var wire 1 C RES_ref [14] $end
$var wire 1 D RES_ref [13] $end
$var wire 1 E RES_ref [12] $end
$var wire 1 F RES_ref [11] $end
$var wire 1 G RES_ref [10] $end
$var wire 1 H RES_ref [9] $end
$var wire 1 I RES_ref [8] $end
$var wire 1 J RES_ref [7] $end
$var wire 1 K RES_ref [6] $end
$var wire 1 L RES_ref [5] $end
$var wire 1 M RES_ref [4] $end
$var wire 1 N RES_ref [3] $end
$var wire 1 O RES_ref [2] $end
$var wire 1 P RES_ref [1] $end
$var wire 1 Q RES_ref [0] $end
$var wire 1 R COUT_ref $end
$var wire 1 S OFLOW_ref $end
$var wire 1 T G_ref $end
$var wire 1 U E_ref $end
$var wire 1 V L_ref $end
$var wire 1 W ERR_ref $end
$var integer 32 X pass_count $end
$var integer 32 Y fail_count $end
$var integer 32 Z test_count $end

$scope task test_rst_async $end
$upscope $end

$scope task test_rst_during_op $end
$upscope $end

$scope task test_ce $end
$var reg 16 [ held_res [15:0] $end
$var reg 1 \ held_err $end
$var reg 1 ] held_oflow $end
$var reg 1 ^ held_G $end
$var reg 1 _ held_L $end
$var reg 1 ` held_E $end
$upscope $end

$scope task test_arithmetic_direct $end
$upscope $end

$scope task test_logical_direct $end
$upscope $end

$scope task test_in_val $end
$upscope $end

$scope task test_corner_cases $end
$upscope $end

$scope task test_error_cases $end
$upscope $end

$scope task apply_test $end
$var reg 8 a a [7:0] $end
$var reg 8 b b [7:0] $end
$var reg 4 c c [3:0] $end
$var reg 2 d iv [1:0] $end
$var reg 1 e ci $end
$var reg 640 f test_name [640:1] $end
$upscope $end

$scope task apply_test_2cycle $end
$var reg 8 g a [7:0] $end
$var reg 8 h b [7:0] $end
$var reg 4 i c [3:0] $end
$var reg 2 j iv [1:0] $end
$var reg 1 k ci $end
$var reg 640 l test_name [640:1] $end
$upscope $end

$scope function compare_outputs $end
$var reg 1 m compare_outputs $end
$var reg 1 n dummy $end
$upscope $end

$scope task display_mismatch $end
$upscope $end

$scope module dut $end
$var parameter 32 o N $end
$var parameter 32 p M $end
$var wire 1 q clk $end
$var wire 1 r rst $end
$var wire 1 s CIN $end
$var wire 1 t MODE $end
$var wire 1 u CE $end
$var wire 1 v INP_VALID [1] $end
$var wire 1 w INP_VALID [0] $end
$var wire 1 x OPA [7] $end
$var wire 1 y OPA [6] $end
$var wire 1 z OPA [5] $end
$var wire 1 { OPA [4] $end
$var wire 1 | OPA [3] $end
$var wire 1 } OPA [2] $end
$var wire 1 ~ OPA [1] $end
$var wire 1 !! OPA [0] $end
$var wire 1 "! OPB [7] $end
$var wire 1 #! OPB [6] $end
$var wire 1 $! OPB [5] $end
$var wire 1 %! OPB [4] $end
$var wire 1 &! OPB [3] $end
$var wire 1 '! OPB [2] $end
$var wire 1 (! OPB [1] $end
$var wire 1 )! OPB [0] $end
$var wire 1 *! CMD [3] $end
$var wire 1 +! CMD [2] $end
$var wire 1 ,! CMD [1] $end
$var wire 1 -! CMD [0] $end
$var reg 1 .! OFLOW $end
$var reg 1 /! COUT $end
$var reg 1 0! G $end
$var reg 1 1! L $end
$var reg 1 2! E $end
$var reg 1 3! ERR $end
$var reg 16 4! RES [15:0] $end
$var reg 2 5! count [1:0] $end
$var reg 9 6! temp [8:0] $end
$upscope $end

$scope module ref_mod $end
$var parameter 32 7! N $end
$var wire 1 8! clk $end
$var wire 1 9! rst $end
$var wire 1 :! c_in $end
$var wire 1 ;! ce $end
$var wire 1 <! mode $end
$var wire 1 =! in_val [1] $end
$var wire 1 >! in_val [0] $end
$var wire 1 ?! opa [7] $end
$var wire 1 @! opa [6] $end
$var wire 1 A! opa [5] $end
$var wire 1 B! opa [4] $end
$var wire 1 C! opa [3] $end
$var wire 1 D! opa [2] $end
$var wire 1 E! opa [1] $end
$var wire 1 F! opa [0] $end
$var wire 1 G! opb [7] $end
$var wire 1 H! opb [6] $end
$var wire 1 I! opb [5] $end
$var wire 1 J! opb [4] $end
$var wire 1 K! opb [3] $end
$var wire 1 L! opb [2] $end
$var wire 1 M! opb [1] $end
$var wire 1 N! opb [0] $end
$var wire 1 O! cmd [3] $end
$var wire 1 P! cmd [2] $end
$var wire 1 Q! cmd [1] $end
$var wire 1 R! cmd [0] $end
$var reg 1 S! oflow $end
$var reg 1 T! c_out $end
$var reg 1 U! G $end
$var reg 1 V! L $end
$var reg 1 W! E $end
$var reg 1 X! err $end
$var reg 16 Y! res [15:0] $end
$upscope $end
$upscope $end
$enddefinitions $end
#0
$dumpvars
b0 #
b0 $
0%
1&
0'
0(
0)
b11 *
b0 +
0.!
0/!
00!
01!
02!
03!
b0 4!
b0 5!
bx 6!
xS!
xT!
xU!
xV!
xW!
xX!
bx Y!
bx [
x\
x]
x^
x_
x`
bx a
bx b
bx c
bx d
xe
bx f
bx g
bx h
bx i
bx j
xk
bx l
xm
xn
b1000 !
b100 "
b1000 o
b100 p
b1000 7!
b0 X
b0 Y
b0 Z
0;
0:
09
08
07
06
05
04
03
02
01
00
0/
0.
0-
0,
0<
0=
0>
0?
0@
0A
xQ
xP
xO
xN
xM
xL
xK
xJ
xI
xH
xG
xF
xE
xD
xC
xB
xR
xS
xT
xU
xV
xW
0R!
0Q!
0P!
0O!
0N!
0M!
0L!
0K!
0J!
0I!
0H!
0G!
0F!
0E!
0D!
0C!
0B!
0A!
0@!
0?!
1>!
1=!
0<!
0;!
0:!
09!
08!
0s
0)!
0(!
0'!
0&!
0%!
0$!
0#!
0"!
0!!
0~
0}
0|
0{
0z
0y
0x
0u
0t
0-!
0,!
0+!
0*!
1w
1v
1r
0q
$end
#5000
1%
1q
18!
b0 Y!
0T!
0S!
0U!
0W!
0V!
0X!
0Q
0P
0O
0N
0M
0L
0K
0J
0I
0H
0G
0F
0E
0D
0C
0B
0R
0S
0T
0U
0V
0W
#10000
0%
0q
08!
#15000
1%
1q
18!
#20000
0%
0q
08!
#25000
1%
1q
18!
0&
1'
1u
1;!
0r
19!
#30000
0%
0q
08!
#35000
1%
1q
18!
#40000
0%
0q
08!
#45000
1%
1q
18!
1(
b10101010 #
b10111011 $
1t
1<!
1N!
1M!
1K!
1J!
1I!
1G!
1)!
1(!
1&!
1%!
1$!
1"!
1E!
1C!
1A!
1?!
1~
1|
1z
1x
#48000
1&
1r
09!
#50000
0%
b1 Z
b1 X
0q
08!
#55000
1%
1q
18!
0&
b10101010 Y!
1P
1N
1L
1J
0r
19!
#60000
0%
0q
08!
#65000
1%
1q
18!
b101100101 6!
b101100101 Y!
1T!
1Q
0P
1O
0N
1K
0J
1I
1R
b101100101 4!
1/!
1.!
1;
19
16
15
13
1<
1=
#70000
0%
0q
08!
#75000
1%
1q
18!
b1111 a
b1 b
b0 c
b11 d
0e
b10100100101001101010100001000000110010001100101011000010111001101110011011001010111001001110100001000000111010001101000011001010110111000100000010000010100010001000100 f
0T!
0R
#80000
0%
0q
08!
b1111 #
b1 $
0M!
0K!
0J!
0I!
0G!
0(!
0&!
0%!
0$!
0"!
1F!
1D!
0A!
0?!
1!!
1}
0z
0x
#85000
1%
1q
18!
b10000 6!
b10000 Y!
0Q
0O
1M
0L
0K
0I
b10000 4!
0/!
0.!
0;
09
17
06
05
03
0<
0=
#90000
0%
0q
08!
#95000
1%
1q
18!
#96000
b10 Z
0n
1m
b10 X
b10101010 a
b10111011 b
b111000001110010011001010010110101110010011100110111010000100000010000010100010001000100 f
#100000
0%
0q
08!
b10101010 #
b10111011 $
1M!
1K!
1J!
1I!
1G!
1(!
1&!
1%!
1$!
1"!
0F!
0D!
1A!
1?!
0!!
0}
1z
1x
#105000
1%
1q
18!
b101100101 6!
b101100101 Y!
1T!
1Q
1O
0M
1L
1K
1I
1R
b101100101 4!
1/!
1.!
1;
19
07
16
15
13
1<
1=
#110000
0%
0q
08!
#115000
1%
1q
18!
0T!
0R
#116000
b11 Z
0m
b1 Y
#120000
0%
0q
08!
#125000
1%
1q
18!
b11011110 #
b10101101 $
1T!
0M!
1L!
0J!
0(!
1'!
0%!
1D!
1B!
0A!
1@!
1}
1{
0z
1y
1R
#130000
0%
0q
08!
#135000
1%
1q
18!
b110001011 6!
1&
0T!
0R
1r
09!
b110001011 4!
b0 4!
0.!
0/!
0;
09
06
05
03
0=
0<
#140000
0%
0q
08!
#145000
1%
1q
18!
b110001011 Y!
1T!
1P
0O
1N
0L
0K
1J
1R
#150000
0%
0q
08!
#155000
1%
1q
18!
b100 Z
b11 X
0&
b0 Y!
0T!
0Q
0P
0N
0J
0I
0R
0r
19!
#160000
0%
0q
08!
#165000
1%
1q
18!
b110001011 Y!
1T!
1Q
1P
1N
1J
1I
1R
b110001011 4!
1/!
1.!
1;
1:
18
14
13
1<
1=
#170000
0%
0q
08!
#175000
1%
1q
18!
b1111 a
b1 b
b111000001101111011100110111010000101101011100100111001101110100001000000110111101110000 f
0T!
0R
#180000
0%
0q
08!
b1111 #
b1 $
0L!
0K!
0I!
0G!
0'!
0&!
0$!
0"!
1F!
0B!
0@!
0?!
1!!
0{
0y
0x
#185000
1%
1q
18!
b10000 6!
b10000 Y!
0Q
0P
0N
1M
0J
0I
b10000 4!
0/!
0.!
0;
0:
08
17
04
03
0<
0=
#190000
0%
0q
08!
#195000
1%
1q
18!
#196000
b101 Z
1m
b100 X
b100001101000101001111010011000100100000010000010100010001000100001000000110010101111000011001010110001101110101011101000110010101110011 f
#200000
0%
0q
08!
#205000
1%
1q
18!
#210000
0%
0q
08!
#215000
1%
1q
18!
#216000
b110 Z
b101 X
b10000 [
0\
0]
0^
0_
0`
0'
0u
0;!
#220000
0%
0q
08!
b10101010 #
b10111011 $
1M!
1K!
1J!
1I!
1G!
1(!
1&!
1%!
1$!
1"!
0F!
0D!
1A!
1?!
0!!
0}
1z
1x
#225000
1%
1q
18!
b101100101 Y!
1T!
1Q
1O
0M
1L
1K
1I
1R
#230000
0%
0q
08!
#235000
1%
1q
18!
#236000
b111 Z
b110 X
1'
1u
1;!
#240000
0%
0q
08!
#245000
1%
1q
18!
b101100101 6!
0T!
0R
b101100101 4!
1/!
1.!
1;
19
07
16
15
13
1<
1=
#250000
0%
0q
08!
#255000
1%
1q
18!
b1000001010001000100010000100000011011100110111101110010011011010110000101101100 f
1T!
1R
#260000
0%
0q
08!
b1111 #
b1 $
0M!
0K!
0J!
0I!
0G!
0(!
0&!
0%!
0$!
0"!
1F!
1D!
0A!
0?!
1!!
1}
0z
0x
#265000
1%
1q
18!
b10000 6!
0T!
0R
b10000 4!
0/!
0.!
0;
09
17
06
05
03
0<
0=
#270000
0%
0q
08!
#275000
1%
1q
18!
b10000 Y!
0Q
0O
1M
0L
0K
0I
#276000
b1000 Z
b111 X
b11111111 a
b1000001010001000100010000100000011000110110000101110010011100100111100100100000011011110111010101110100 f
#280000
0%
0q
08!
b11111111 #
1B!
1A!
1@!
1?!
1{
1z
1y
1x
#285000
1%
1q
18!
b100000000 6!
b100000000 4!
1/!
1.!
07
13
1<
1=
#290000
0%
0q
08!
#295000
1%
1q
18!
b100000000 Y!
1T!
0M
1I
1R
#296000
b1001 Z
0m
b10 Y
b0 a
b0 b
b100000101000100010001000010000001111010011001010111001001101111 f
#300000
0%
0q
08!
b0 #
b0 $
0N!
0)!
0F!
0E!
0D!
0C!
0B!
0A!
0@!
0?!
0!!
0~
0}
0|
0{
0z
0y
0x
#305000
1%
1q
18!
b0 6!
0T!
0R
b0 4!
0/!
0.!
03
0<
0=
#310000
0%
0q
08!
#315000
1%
1q
18!
b0 Y!
0I
#316000
b1010 Z
1m
b1000 X
b100000 a
b10000 b
b1 c
b1010011010101010100001000100000011011100110111101110010011011010110000101101100 f
#320000
0%
0q
08!
b100000 #
b10000 $
b1 +
1R!
1-!
1J!
1%!
1A!
1z
#325000
1%
1q
18!
b10000 4!
17
#330000
0%
0q
08!
#335000
1%
1q
18!
b10000 Y!
1M
#336000
b1011 Z
b1001 X
b10000 a
b100000 b
b101001101010101010000100010000001110101011011100110010001100101011100100110011001101100011011110111011100101101001111100110111101100110011011000110111101110111 f
#340000
0%
0q
08!
b10000 #
b100000 $
0J!
1I!
0%!
1$!
1B!
0A!
1{
0z
#345000
1%
1q
18!
b1111111111110000 4!
1.!
16
15
14
13
12
11
10
1/
1.
1-
1,
1=
#350000
0%
0q
08!
#355000
1%
1q
18!
b1111111111110000 Y!
1S!
1L
1K
1J
1I
1H
1G
1F
1E
1D
1C
1B
1S
#356000
b1100 Z
b1010 X
b0 a
b0 b
b101001101010101010000100010000001111010011001010111001001101111 f
#360000
0%
0q
08!
b0 #
b0 $
0I!
0$!
0B!
0{
#365000
1%
1q
18!
0S!
0S
b0 4!
0.!
07
06
05
04
03
02
01
00
0/
0.
0-
0,
0=
#370000
0%
0q
08!
#375000
1%
1q
18!
b0 Y!
0M
0L
0K
0J
0I
0H
0G
0F
0E
0D
0C
0B
#376000
b1101 Z
b1011 X
b11111111 a
b10 c
b1000001010001000100010001011111010000110100100101001110001000000100001101101001011011100011110100110000 f
#380000
0%
0q
08!
b11111111 #
b10 +
0R!
1Q!
0-!
1,!
1F!
1E!
1D!
1C!
1B!
1A!
1@!
1?!
1!!
1~
1}
1|
1{
1z
1y
1x
#385000
1%
1q
18!
b11111111 6!
b11111111 4!
1;
1:
19
18
17
16
15
14
#390000
0%
0q
08!
#395000
1%
1q
18!
b11111111 Y!
1Q
1P
1O
1N
1M
1L
1K
1J
#396000
b1110 Z
b1100 X
1e
b1000001010001000100010001011111010000110100100101001110001000000100001101101001011011100011110100110001001000000110001101100001011100100111001001111001 f
#400000
0%
0q
08!
1)
1s
1:!
#405000
1%
1q
18!
b100000000 6!
b100000000 4!
1/!
1.!
0;
0:
09
08
07
06
05
04
13
1<
1=
#410000
0%
0q
08!
#415000
1%
1q
18!
b100000000 Y!
1T!
0Q
0P
0O
0N
0M
0L
0K
0J
1I
1R
#416000
b1111 Z
0m
b11 Y
b10000 a
b100000 b
b10000010100010001000100010111110100001101001001010011100010000001100011001111010011000100100000011011100110111101110010011011010110000101101100 f
#420000
0%
0q
08!
b10000 #
b100000 $
1I!
1$!
0F!
0E!
0D!
0C!
0A!
0@!
0?!
0!!
0~
0}
0|
0z
0y
0x
#425000
1%
1q
18!
b110001 6!
0T!
0R
b110001 4!
0/!
0.!
1;
17
16
03
0<
0=
#430000
0%
0q
08!
#435000
1%
1q
18!
b110001 Y!
1Q
1M
1L
0I
#436000
b10000 Z
1m
b1101 X
b0 a
b0 b
0e
b10000010100010001000100010111110100001101001001010011100010000001111010011001010111001001101111 f
#440000
0%
0q
08!
b0 #
b0 $
0)
0I!
0$!
0B!
0{
0s
0:!
#445000
1%
1q
18!
b0 6!
b0 4!
0;
07
06
#450000
0%
0q
08!
#455000
1%
1q
18!
b0 Y!
0Q
0M
0L
#456000
b10001 Z
b1110 X
b100000 a
b10000 b
b11 c
b1010011010101010100001001011111010000100100111101010010001000000100001101101001011011100011110100110000 f
#460000
0%
0q
08!
b100000 #
b10000 $
b11 +
1R!
1-!
1J!
1%!
1A!
1z
#465000
1%
1q
18!
b10000 4!
17
#470000
0%
0q
08!
#475000
1%
1q
18!
b10000 Y!
1M
#476000
b10010 Z
b1111 X
b1111 a
b1 b
1e
b1010011010101010100001001011111010000100100111101010010001000000100001101101001011011100011110100110001 f
#480000
0%
0q
08!
b1111 #
b1 $
1)
1N!
0J!
1)!
0%!
1F!
1E!
1D!
1C!
0A!
1!!
1~
1}
1|
0z
1s
1:!
#485000
1%
1q
18!
b1101 4!
1;
19
18
07
#490000
0%
0q
08!
#495000
1%
1q
18!
b1101 Y!
1Q
1O
1N
0M
#496000
b10011 Z
b10000 X
b1 a
b1111 b
b101001101010101010000100101111101000010010011110101001000100000011101010110111001100100011001010111001001100110011011000110111101110111 f
#500000
0%
0q
08!
b1 #
b1111 $
1M!
1L!
1K!
1(!
1'!
1&!
0E!
0D!
0C!
0~
0}
0|
#505000
1%
1q
18!
b1111111111110001 4!
1.!
09
08
17
16
15
14
13
12
11
10
1/
1.
1-
1,
1=
#510000
0%
0q
08!
#515000
1%
1q
18!
b1111111111110001 Y!
1S!
0O
0N
1M
1L
1K
1J
1I
1H
1G
1F
1E
1D
1C
1B
1S
#516000
b10100 Z
b10001 X
b1010 a
b0 b
b100 c
0e
b100100101001110010000110101111101001111010100000100000100100000011011100110111101110010011011010110000101101100 f
#520000
0%
0q
08!
b1010 #
b0 $
b100 +
0)
0R!
0Q!
1P!
0-!
0,!
1+!
0N!
0M!
0L!
0K!
0)!
0(!
0'!
0&!
0F!
1E!
1C!
0!!
1~
1|
0s
0:!
#525000
1%
1q
18!
0S!
0S
b1011 4!
1:
18
07
06
05
04
03
02
01
00
0/
0.
0-
0,
#530000
0%
0q
08!
#535000
1%
1q
18!
b1011 Y!
1P
1N
0M
0L
0K
0J
0I
0H
0G
0F
0E
0D
0C
0B
#536000
b10101 Z
0m
b100 Y
b1 d
b1001001010011100100001101011111010011110101000001000001001000000110100101110110001111010011000000110001 f
#540000
0%
0q
08!
b1 *
0=!
0v
#545000
1%
1q
18!
#550000
0%
0q
08!
#555000
1%
1q
18!
#556000
b10110 Z
1m
0m
b101 Y
b101 c
b11 d
b100010001000101010000110101111101001111010100000100000100100000011011100110111101110010011011010110000101101100 f
#560000
0%
0q
08!
b101 +
b11 *
1=!
1v
1R!
1-!
#565000
1%
1q
18!
b1001 4!
0:
#570000
0%
0q
08!
#575000
1%
1q
18!
b1001 Y!
0P
#576000
b10111 Z
1m
0m
b110 Y
b1 d
b1000100010001010100001101011111010011110101000001000001001000000110100101110110001111010011000000110001 f
#580000
0%
0q
08!
b1 *
0=!
0v
#585000
1%
1q
18!
#590000
0%
0q
08!
#595000
1%
1q
18!
#596000
b11000 Z
1m
0m
b111 Y
b0 a
b1010 b
b110 c
b11 d
b100100101001110010000110101111101001111010100000100001000100000011011100110111101110010011011010110000101101100 f
#600000
0%
0q
08!
b0 #
b1010 $
b110 +
b11 *
1=!
1v
0R!
1Q!
0-!
1,!
1M!
1K!
1(!
1&!
0E!
0C!
0~
0|
#605000
1%
1q
18!
b1011 4!
1:
#610000
0%
0q
08!
#615000
1%
1q
18!
b1011 Y!
1P
#616000
b11001 Z
1m
0m
b1000 Y
b10 d
b1001001010011100100001101011111010011110101000001000010001000000110100101110110001111010011000100110000 f
#620000
0%
0q
08!
b10 *
0>!
0w
#625000
1%
1q
18!
#630000
0%
0q
08!
#635000
1%
1q
18!
#636000
b11010 Z
1m
0m
b1001 Y
b111 c
b11 d
b100010001000101010000110101111101001111010100000100001000100000011011100110111101110010011011010110000101101100 f
#640000
0%
0q
08!
b111 +
b11 *
1>!
1w
1R!
1-!
#645000
1%
1q
18!
b1001 4!
0:
#650000
0%
0q
08!
#655000
1%
1q
18!
b1001 Y!
0P
#656000
b11011 Z
1m
0m
b1010 Y
b10 d
b1000100010001010100001101011111010011110101000001000010001000000110100101110110001111010011000100110000 f
#660000
0%
0q
08!
b10 *
0>!
0w
#665000
1%
1q
18!
#670000
0%
0q
08!
#675000
1%
1q
18!
#676000
b11100 Z
1m
0m
b1011 Y
b11111111 a
b1 b
b1000 c
b11 d
b1000011010011010101000000100000010011110101000001000001001111100100111101010000010000100010000000101101001111100010000001000111 f
#680000
0%
0q
08!
b11111111 #
b1 $
b1000 +
b11 *
1>!
1w
0R!
0Q!
0P!
1O!
0-!
0,!
0+!
1*!
1N!
0M!
0K!
1)!
0(!
0&!
1F!
1E!
1D!
1C!
1B!
1A!
1@!
1?!
1!!
1~
1}
1|
1{
1z
1y
1x
#685000
1%
1q
18!
10!
1>
#690000
0%
0q
08!
#695000
1%
1q
18!
1U!
1T
#696000
b11101 Z
1m
0m
b1100 Y
b1 a
b11111111 b
b1000011010011010101000000100000010011110101000001000001001111000100111101010000010000100010000000101101001111100010000001001100 f
#700000
0%
0q
08!
b1 #
b11111111 $
1M!
1L!
1K!
1J!
1I!
1H!
1G!
1(!
1'!
1&!
1%!
1$!
1#!
1"!
0E!
0D!
0C!
0B!
0A!
0@!
0?!
0~
0}
0|
0{
0z
0y
0x
#705000
1%
1q
18!
0U!
0T
00!
11!
0>
1@
#710000
0%
0q
08!
#715000
1%
1q
18!
1V!
1V
#716000
b11110 Z
1m
0m
b1101 Y
b10101010 a
b10101010 b
b100001101001101010100000010000001001111010100000100000100111101001111010100111101010000010000100010000000101101001111100010000001000101 f
#720000
0%
0q
08!
b10101010 #
b10101010 $
0N!
0L!
0J!
0H!
0)!
0'!
0%!
0#!
0F!
1E!
1C!
1A!
1?!
0!!
1~
1|
1z
1x
#725000
1%
1q
18!
0V!
0V
01!
12!
0@
1?
#730000
0%
0q
08!
#735000
1%
1q
18!
1W!
1U
#736000
b11111 Z
1m
0m
b1110 Y
b0 a
b0 b
b1000011010011010101000000100000011110100110010101110010011011110010000001100101011100010111010101100001011011000010000000101101001111100010000001000101 f
#740000
0%
0q
08!
b0 #
b0 $
0M!
0K!
0I!
0G!
0(!
0&!
0$!
0"!
0E!
0C!
0A!
0?!
0~
0|
0z
0x
#745000
1%
1q
18!
0W!
0U
#750000
0%
0q
08!
#755000
1%
1q
18!
1W!
1U
#756000
b100000 Z
1m
0m
b1111 Y
b10 g
b11 h
b1001 i
b11 j
0k
b100110101010101010011000010000000101000001100110010100100101010001010000011010000101001001111010011000100110010 l
#760000
0%
0q
08!
b10 #
b11 $
b1001 +
1R!
1-!
1N!
1M!
1)!
1(!
1E!
1~
#765000
1%
1q
18!
0W!
0U
b1 5!
#770000
0%
0q
08!
#775000
1%
1q
18!
bx Y!
xQ
xP
xO
xN
xM
xL
xK
xJ
xI
xH
xG
xF
xE
xD
xC
xB
b10 5!
#780000
0%
0q
08!
#785000
1%
1q
18!
b1100 Y!
0Q
0P
1O
1N
0M
0L
0K
0J
0I
0H
0G
0F
0E
0D
0C
0B
b1100 4!
b0 5!
0;
19
#786000
b100001 Z
1m
0m
b10000 Y
b0 g
b0 h
b10011010101010101001100001000000011000100101010001100010011110100110001 l
#790000
0%
0q
08!
b0 #
b0 $
0N!
0M!
0)!
0(!
0E!
0~
#795000
1%
1q
18!
b1 5!
#800000
0%
0q
08!
#805000
1%
1q
18!
bx Y!
xQ
xP
xO
xN
xM
xL
xK
xJ
xI
xH
xG
xF
xE
xD
xC
xB
b10 5!
#810000
0%
0q
08!
#815000
1%
1q
18!
b1 Y!
1Q
0P
0O
0N
0M
0L
0K
0J
0I
0H
0G
0F
0E
0D
0C
0B
b1 4!
b0 5!
1;
09
08
#816000
b100010 Z
1m
0m
b10001 Y
b11111111 g
b11111111 h
b1001101010101010100110000100000011011010110000101111000 l
#820000
0%
0q
08!
b11111111 #
b11111111 $
1N!
1M!
1L!
1K!
1J!
1I!
1H!
1G!
1)!
1(!
1'!
1&!
1%!
1$!
1#!
1"!
1F!
1E!
1D!
1C!
1B!
1A!
1@!
1?!
1!!
1~
1}
1|
1{
1z
1y
1x
#825000
1%
1q
18!
b1 5!
#830000
0%
0q
08!
#835000
1%
1q
18!
bx Y!
xQ
xP
xO
xN
xM
xL
xK
xJ
xI
xH
xG
xF
xE
xD
xC
xB
b10 5!
#840000
0%
0q
08!
#845000
1%
1q
18!
b0 Y!
0Q
0P
0O
0N
0M
0L
0K
0J
0I
0H
0G
0F
0E
0D
0C
0B
b0 4!
b0 5!
0;
#846000
b100011 Z
1m
0m
b10010 Y
b10 g
b11 h
b1010 i
b100110101010101010011000101111101010011010010000100110000100000011011100110111101110010011011010110000101101100 l
#850000
0%
0q
08!
b10 #
b11 $
b1010 +
0R!
1Q!
0-!
1,!
0L!
0K!
0J!
0I!
0H!
0G!
0'!
0&!
0%!
0$!
0#!
0"!
0F!
0D!
0C!
0B!
0A!
0@!
0?!
0!!
0}
0|
0{
0z
0y
0x
#855000
1%
1q
18!
b1 5!
#860000
0%
0q
08!
#865000
1%
1q
18!
bx Y!
xQ
xP
xO
xN
xM
xL
xK
xJ
xI
xH
xG
xF
xE
xD
xC
xB
b10 5!
#870000
0%
0q
08!
#875000
1%
1q
18!
b1100 Y!
0Q
0P
1O
1N
0M
0L
0K
0J
0I
0H
0G
0F
0E
0D
0C
0B
b1100 4!
b0 5!
19
18
#876000
b100100 Z
1m
0m
b10011 Y
b11111111 g
b11111111 h
b100110101010101010011000101111101010011010010000100110000100000011011010110000101111000 l
#880000
0%
0q
08!
b11111111 #
b11111111 $
1L!
1K!
1J!
1I!
1H!
1G!
1'!
1&!
1%!
1$!
1#!
1"!
1F!
1D!
1C!
1B!
1A!
1@!
1?!
1!!
1}
1|
1{
1z
1y
1x
#885000
1%
1q
18!
b1 5!
#890000
0%
0q
08!
#895000
1%
1q
18!
bx Y!
xQ
xP
xO
xN
xM
xL
xK
xJ
xI
xH
xG
xF
xE
xD
xC
xB
b10 5!
#900000
0%
0q
08!
#905000
1%
1q
18!
b1111110000000010 Y!
0Q
1P
0O
0N
0M
0L
0K
0J
0I
0H
1G
1F
1E
1D
1C
1B
b1111110000000010 4!
b0 5!
1:
09
08
11
10
1/
1.
1-
1,
#906000
b100101 Z
1m
0m
b10100 Y
b0 c
b10001100100110001010101010100110100100000100000011000010110011001110100011001010111001000100000010011010101010101001100 f
#910000
0%
0q
08!
b0 #
b0 $
b0 +
0Q!
0O!
0,!
0*!
0N!
0M!
0L!
0K!
0J!
0I!
0H!
0G!
0)!
0(!
0'!
0&!
0%!
0$!
0#!
0"!
0F!
0E!
0D!
0C!
0B!
0A!
0@!
0?!
0!!
0~
0}
0|
0{
0z
0y
0x
#915000
1%
1q
18!
b0 4!
0.!
0:
01
00
0/
0.
0-
0,
0=
#920000
0%
0q
08!
#925000
1%
1q
18!
b0 Y!
0P
0G
0F
0E
0D
0C
0B
#926000
b100110 Z
1m
0m
b10101 Y
b111111 a
b111111 b
b1011 c
b101001101000001010001000100010000100000001010110111011001100101001000000110111101110110011001010111001001100110011011000110111101110111 f
#930000
0%
0q
08!
b111111 #
b111111 $
b1011 +
1R!
1Q!
1O!
1-!
1,!
1*!
1N!
1M!
1L!
1K!
1J!
1I!
1)!
1(!
1'!
1&!
1%!
1$!
1F!
1E!
1D!
1C!
1B!
1A!
1!!
1~
1}
1|
1{
1z
#935000
1%
1q
18!
b1111110 6!
b1111110 4!
1:
19
18
17
16
15
#940000
0%
0q
08!
#945000
1%
1q
18!
b1111110 Y!
1P
1O
1N
1M
1L
1K
#946000
b100111 Z
1m
0m
b10110 Y
b11000000 a
b11000000 b
b101001101000001010001000100010000100000001011010111011001100101001000000110111101110110011001010111001001100110011011000110111101110111 f
#950000
0%
0q
08!
b11000000 #
b11000000 $
0N!
0M!
0L!
0K!
0J!
0I!
1H!
1G!
0)!
0(!
0'!
0&!
0%!
0$!
1#!
1"!
0F!
0E!
0D!
0C!
0B!
0A!
1@!
1?!
0!!
0~
0}
0|
0{
0z
1y
1x
#955000
1%
1q
18!
b110000000 6!
b110000000 4!
1/!
0:
09
08
07
06
05
14
13
1<
#960000
0%
0q
08!
#965000
1%
1q
18!
b1111111110000000 Y!
0P
0O
0N
0M
0L
0K
1J
1I
1H
1G
1F
1E
1D
1C
1B
#966000
b101000 Z
1m
0m
b10111 Y
b1 a
b11111111 b
b101001101000001010001000100010000100000001010110011000100101011001010000010110100110001001010010011110100110000 f
#970000
0%
0q
08!
b1 #
b11111111 $
1N!
1M!
1L!
1K!
1J!
1I!
1)!
1(!
1'!
1&!
1%!
1$!
1F!
0@!
0?!
1!!
0y
0x
#975000
1%
1q
18!
b0 6!
b0 4!
0/!
10!
02!
04
03
0<
1>
0?
#980000
0%
0q
08!
#985000
1%
1q
18!
b0 Y!
0J
0I
0H
0G
0F
0E
0D
0C
0B
#986000
b101001 Z
1m
0m
b11000 Y
b0 a
b0 b
b10100110100000101000100010001000010000001111010011001010111001001101111 f
#990000
0%
0q
08!
b0 #
b0 $
0N!
0M!
0L!
0K!
0J!
0I!
0H!
0G!
0)!
0(!
0'!
0&!
0%!
0$!
0#!
0"!
0F!
0!!
#995000
1%
1q
18!
00!
12!
0>
1?
#1000000
0%
0q
08!
#1005000
1%
1q
18!
#1006000
b101010 Z
1m
0m
b11001 Y
b1111111 a
b11111111 b
b1100 c
b1010011010100110101010101000010001000000110110101100001011110000010110100101000001011010011000100101001 f
